{
  "cviceni": {
    "version": {
      "global": "<%= version %>",
      "content": 2
    },
    "katalog": ["public"],
    "language": "cs",
    "slug": "kam-ho-umistit",
    "nazev": "Kam ho umístit?",
    "autor": [
      "Čeněk Pýcha"
    ],
    "casovaOsa": {
      "roky": [
        1956
      ],
      "epocha": {
        "ceska": ["poválečná doba a nástup komunismu"]
      }
    },
    "klicovaSlova": [
      "Československo 50. léta",
      "sociální dějiny",
      "dobové perspektivy",
      "etická dimenze",
      "vidíme pod povrch pramene?"
    ],
    "anotace": {
      "ucitel": "Cvičení učí žáky pracovat s historickým úředním dokumentem - umístěnkou. Umístěnku dostávali studenti po ukončení školy a nařizovala jim, kam mají nastoupit do práce. Žáci napřed analyzují formální části dokumentu (datum, instituce, razítko atp.), následně jeho obsah. Na závěr hledají odpovědi na otázku, zda bylo umístění spravedlivé a proč. Cvičení lze využít ve výuce pro dokreslení běžného života v 50. letech.",
      "verejna": "Přemýšlíte, co budete dělat, až dokončíte školu? Jak si budete shánět zaměstnání? Představte si, že v padesátých letech to fungovalo jinak. Pojďte se ponořit do úředního dokumentu a zjistěte, jak tenkrát probíhalo shánění zaměstnání."
    },
    "obtiznost": "nizka",
    "trvani": 20,
    "funkce": [
      "lupa",
      "cteni",
      "text",
      "svg",
      "znacky",
      "text-editor",
      "kviz"
    ],
    "pdf": {
      "doporucenyPostup": "kam-ho-umistit.pdf"
    },
    "uvodniObrazek": "kam-ho-umistit/pic-00-1024h.jpg",
    "id": 80
  },
  "slajd": [
    {
      "zadani": {
        "hlavni": "Prohlédněte si a pročtěte pramen.",
        "rozsirujici": ""
      },
      "napoveda": {
        "aktivity": [
          "lupa"
        ],
        "text": "Při kliknutí levým tlačítkem do obrazu lupa přiblíží část obrazu ve výřezu."
      },
      "prameny": [
        "kam-ho-umistit/pic-00-1024h.jpg"
      ],
      "popisky": [
        "Umístěnka, Vítězslav Keller. Zdroj: pribehynasichsousedu.cz"
      ]
    },
    {
      "class": "half-slide-previous",
      "zadani": {
        "hlavni": "Přiřaďte popisky k odpovídajícím místům v dokumentu.",
        "rozsirujici": "Popisky můžete použít opakovaně."
      },
      "napoveda": {
        "aktivity": [
          "svg"
        ],
        "text": "Pomocí drag and drop přesouvejte položky z nabídky do pramene."
      },
      "svg": {
        "pretahovani": {
          "id": "pretahovani-1",
          "items": [
            {
              "objekt": "datum",
              "medium": "tag"
            },
            {
              "objekt": "instituce",
              "medium": "tag"
            },
            {
              "objekt": "osoba",
              "medium": "tag"
            },
            {
              "objekt": "razítko",
              "medium": "tag"
            },
            {
              "objekt": "klíčové sdělení",
              "medium": "tag"
            }
          ]
        },
        "soubory": [
          {
            "id": "svg-1",
            "soubor": "kam-ho-umistit/pic-00-1024h.jpg",
            "funkce": [],
            "drop": true
          }
        ]
      },
      "popisky": [
        "Umístěnka, Vítězslav Keller. Zdroj: pribehynasichsousedu.cz"
      ]
    },
    {
      "class": "half-slide-active",
      "zadani": {
        "hlavni": "Doplňte podle dokumentu.",
        "rozsirujici": ""
      },
      "napoveda": {
        "aktivity": [
          "text"
        ],
        "text": "Do boxu pro text zapisujete odpověď na otázku, nebo jiný komentář (dle zadání)."
      },
      "uzivatelskyText": {
        "otazky": [
          {
            "id": "otazka-1",
            "zadani": "Datum vydání dokumentu",
            "instrukce": "Datum",
            "maxDelka": 100,
            "vyska": 3
          },
          {
            "id": "otazka-2",
            "zadani": "Vydávající instituce",
            "instrukce": "Instituce",
            "maxDelka": 100,
            "vyska": 3
          },
          {
            "id": "otazka-3",
            "zadani": "Koho se dokument týká",
            "instrukce": "Osoba",
            "maxDelka": 100,
            "vyska": 3
          }
        ]
      }
    },
    {
      "class": "half-slide-previous",
      "zadani": {
        "hlavni": "Vyznačte v textu co a proč dokument dotčenému nařizuje.",
        "rozsirujici": ""
      },
      "napoveda": {
        "aktivity": [
          "text-editor"
        ],
        "text": "Levým tlačítkem myši zabarvíte zvolené slovo nebo slovní spojení. Otevře se vám nabídka, v níž zvolíte označovanou kategorii. Křížkem lze označení smazat."
      },
      "textovyEditor": {
        "texty": [
          {
            "id": 0,
            "text": "text-00",
            "funkce": "zvyraznovani",
            "menu": [
              {
                "title": "Co nařizuje?",
                "commandName": "co",
                "classes": "text-red",
                "command": "toggle-class",
                "commandOptions": {
                  "toggleClass": "node-selected node-text-red",
                  "closeBtn": true,
                  "comments": false,
                  "commentsClass": "text-red"
                }
              },
              {
                "title": "Proč nařizuje?",
                "commandName": "proc",
                "classes": "text-orange",
                "command": "toggle-class",
                "commandOptions": {
                  "toggleClass": "node-selected node-text-orange",
                  "closeBtn": true,
                  "comments": false,
                  "commentsClass": "text-orange"
                }
              }
            ]
          }
        ]
      }
    },
    {
      "class": "half-slide-active test-kviz",
      "zadani": {
        "hlavni": "Zodpovězte otázku a zdůvodněte.",
        "rozsirujici": ""
      },
      "napoveda": {
        "aktivity": [
          "analyticka-tabulka",
          "text"
        ],
        "text": "Vyberte jednu z možností.<br>Do boxu pro text zapisujete odpověď na otázku, nebo jiný komentář (dle zadání)."
      },
      "testKviz": {
        "id": "testKviz-1",
        "zadani": [
          {
            "otazka": "Bylo podle vás rozhodnutí spravedlivé?",
            "odpovedi": [
              {
                "text": "ano"
              },
              {
                "text": "ne"
              }
            ]
          }
        ]
      },
      "uzivatelskyText": {
        "otazky": [
          {
            "id": "otazka-4",
            "zadani": "Zdůvodněte odpověď.",
            "instrukce": "Myslím si, že...",
            "maxDelka": 999
          }
        ]
      }
    }
  ]
}
