{
  "cviceni": {
    "version": {
      "global": "<%= version %>",
      "content": 1
    },
    "id": 15,
    "slug": "srpen-1968-tagy",
    "nazev": "Srpen 1968",
    "klicovaSlova": ["1968"],
    "funkce": [
      "lupa",
      "text",
      "svg",
      "kresleni"
    ],
    "pdf": {
      "doporucenyPostup": "srpen-1968-tagy.pdf"
    },
    "uvodniObrazek": "srpen-1968-tagy/pic-00-1280w.jpg"
  },
  "slajd": [
    {
      "class": [
        "half-slide-previous"
      ],
      "zadani": {
        "hlavni": "Prohlédněte si trojici fotografií Josefa Koudelky.",
        "rozsirujici": "Fotografie zachycují příjezd vojsk Varšavské smlouvy do Prahy na konci srpna 1968."
      },
      "napoveda": {
        "aktivity": [
          "lupa"
        ],
        "text": ""
      },
      "prameny": [
        "srpen-1968-tagy/pic-00-1280w.jpg",
        "srpen-1968-tagy/pic-01-1280w.jpg",
        "srpen-1968-tagy/pic-02-1280w.jpg"
      ]
    },
    {
      "class": [
        "half-slide-active"
      ],
      "zadani": {
        "hlavni": "Na základě fotografií krátce popište, co se na konci srpna 1968 dělo v pražských ulicích.",
        "rozsirujici": ""
      },
      "napoveda": {
        "aktivity": [
          "text"
        ],
        "text": ""
      },
      "prameny": [
        "srpen-1968-tagy/pic-00-1280w.jpg",
        "srpen-1968-tagy/pic-01-1280w.jpg",
        "srpen-1968-tagy/pic-02-1280w.jpg"
      ],
      "uzivatelskyText": {
        "otazky": [
          {
            "id": "text-1",
            "zadani": "",
            "instrukce": "Co se dělo v pražských ulicích?",
            "minDelka": 0,
            "maxDelka": 400
          }
        ]
      }
    },
    {
      "class": [
        "half-slide-previous"
      ],
      "zadani": {
        "hlavni": "Z jaké pozice fotograf daný výjev vyfotil?",
        "rozsirujici": "Vyberte odpovídající úhel pohledu u každé fotografie."
      },
      "napoveda": {
        "aktivity": [
          "lupa",
          "tagy"
        ],
        "text": "Nyní jsou vybrána všechna klíčová slova, kliknutím můžete klíčové slovo odebrat. Pokud po odebrání kliknete na klíčové slovo, znovu ho přidáte."
      },
      "prameny": [
        "srpen-1968-tagy/pic-00-1280w.jpg",
        "srpen-1968-tagy/pic-01-1280w.jpg",
        "srpen-1968-tagy/pic-02-1280w.jpg"
      ],
      "klicovaSlova": {
        "klicovaSlova": [
          {
            "id": "klicova-slova-1",
            "funkce": "selekce-",
            "tagy": [
              {
                "id": 1,
                "text": "seshora (z nadhledu)"
              },
              {
                "id": 2,
                "text": "v úrovni očí"
              },
              {
                "id": 3,
                "text": "zespodu (z podhledu)"
              }
            ]
          },
          {
            "id": "klicova-slova-2",
            "funkce": "selekce-",
            "tagy": [
              {
                "id": 1,
                "text": "seshora (z nadhledu)"
              },
              {
                "id": 2,
                "text": "v úrovni očí"
              },
              {
                "id": 3,
                "text": "zespodu (z podhledu)"
              }
            ]
          },
          {
            "id": "klicova-slova-3",
            "funkce": "selekce-",
            "tagy": [
              {
                "id": 1,
                "text": "seshora (z nadhledu)"
              },
              {
                "id": 2,
                "text": "v úrovni očí"
              },
              {
                "id": 3,
                "text": "zespodu (z podhledu)"
              }
            ]
          }
        ]
      }
    },
    {
      "class": [
        "half-slide-active"
      ],
      "zadani": {
        "hlavni": "Znovu si prohlédněte fotografie, které jste označili jako vyfocené z podhledu a nadhledu.",
        "rozsirujici": ""
      },
      "napoveda": {
        "aktivity": [
          "text"
        ],
        "text": ""
      },
      "uzivatelskyText": {
        "otazky": [
          {
            "id": "text-2",
            "zadani": "Kdy myslíte, že je vhodné využít podhledu a vyfotit situaci zespodu (z podhledu)?",
            "instrukce": "Myslím si, že…",
            "minDelka": 0,
            "maxDelka": 400
          },
          {
            "id": "text-3",
            "zadani": "Kdy je naopak dobré využít vyvýšeného místa a nadhledu?",
            "instrukce": "Myslím si, že…",
            "minDelka": 0,
            "maxDelka": 400
          }
        ]
      }
    }
  ]
}
